============================================================================================================================================================================================================================================
 Language                                                                                                                                                                         Files        Lines         Code     Comments       Blanks
============================================================================================================================================================================================================================================
 Shell                                                                                                                                                                               30        44243        34274         8393         1576
--------------------------------------------------------------------------------------------------------------------------------------------------------------------------------------------------------------------------------------------
 ./juhu.sh                                                                                                                                                                                     13923        13719          201            3
 ./bash_oneliner.sh                                                                                                                                                                            16385         9597         6702           86
 ./linux-audit.sh                                                                                                                                                                               2795         2545            0          250
 ./unix_collector_new.sh                                                                                                                                                                        1795         1604           85          106
 ./LBFTT.sh                                                                                                                                                                                     1473         1310           64           99
 ./check_auditd.sh                                                                                                                                                                              1249          900          145          204
 ./uac.sh                                                                                                                                                                                       1009          819          118           72
 ./checksec.sh                                                                                                                                                                                   882          699          112           71
 ./AutoLLR_v2.4.sh                                                                                                                                                                               765          608          103           54
 ./initial_auditd.sh                                                                                                                                                                             827          534          112          181
 ./checkin_git_auditd_testing_ruleset.sh                                                                                                                                                         429          275           71           83
 ./start.sh                                                                                                                                                                                      374          229           66           79
 ./linux_triage.sh                                                                                                                                                                               281          193           45           43
 ./BasicForensicLinuxScript.sh                                                                                                                                                                   301          191           80           30
 ./archive_logs.sh                                                                                                                                                                               270          170           51           49
 ./install_requirements_auditd.sh                                                                                                                                                                197          149           38           10
 ./install_requirements_kali.sh                                                                                                                                                                  147          104           33           10
 ./check_b.sh                                                                                                                                                                                    165           77           69           19
 ./install_requirements_nim.sh                                                                                                                                                                   118           72           33           13
 ./install_requirements_go.sh                                                                                                                                                                    119           72           33           14
 ./install_requirements_ruby.sh                                                                                                                                                                  117           71           33           13
 ./check_dns_servers.sh                                                                                                                                                                          118           68           35           15
 ./execute_yaml.sh                                                                                                                                                                                74           63            6            5
 ./check_ntp_servers.sh                                                                                                                                                                          108           52           42           14
 ./install_requirements_rust_on_debian.sh                                                                                                                                                         90           51           23           16
 ./create_priv_rules.sh                                                                                                                                                                           87           37           34           16
 ./tools/git_config.sh                                                                                                                                                                            53           24           22            7
 ./tools/kiss-colors.sh                                                                                                                                                                           48           21           20            7
 ./test.sh                                                                                                                                                                                        19           14            1            4
 ./tools/git_credential.sh                                                                                                                                                                        25            6           16            3
--------------------------------------------------------------------------------------------------------------------------------------------------------------------------------------------------------------------------------------------
 ReStructuredText                                                                                                                                                                     1           69           47            0           22
--------------------------------------------------------------------------------------------------------------------------------------------------------------------------------------------------------------------------------------------
 ./SECURITY.rst                                                                                                                                                                                   69           47            0           22
--------------------------------------------------------------------------------------------------------------------------------------------------------------------------------------------------------------------------------------------
 YAML                                                                                                                                                                                 2           20           20            0            0
--------------------------------------------------------------------------------------------------------------------------------------------------------------------------------------------------------------------------------------------
 ./yaml_file2.yaml                                                                                                                                                                                10           10            0            0
 ./yaml_file1.yaml                                                                                                                                                                                10           10            0            0
--------------------------------------------------------------------------------------------------------------------------------------------------------------------------------------------------------------------------------------------
 Markdown                                                                                                                                                                             6         1317            0          952          365
--------------------------------------------------------------------------------------------------------------------------------------------------------------------------------------------------------------------------------------------
 ./SECURITY.md                                                                                                                                                                                    61            0           39           22
 ./README.md                                                                                                                                                                                     531            0          378          153
 ./Vulnerability_Disclosure_Policy.md                                                                                                                                                            430            0          318          112
 ./CODE_OF_CONDUCT_DE.md                                                                                                                                                                         144            0          107           37
 ./documentation/scorecard/scorecard.md                                                                                                                                                           17            0           13            4
 ./CODE_OF_CONDUCT.md                                                                                                                                                                            134            0           97           37
--------------------------------------------------------------------------------------------------------------------------------------------------------------------------------------------------------------------------------------------
 Plain Text                                                                                                                                                                          18         1774            0         1408          366
--------------------------------------------------------------------------------------------------------------------------------------------------------------------------------------------------------------------------------------------
 ./src/placeholder.txt                                                                                                                                                                             0            0            0            0
 ./test.txt                                                                                                                                                                                        0            0            0            0
 ./dep/placeholder.txt                                                                                                                                                                             0            0            0            0
 ./auditd_directory_list.txt                                                                                                                                                                       6            0            6            0
 ./security.txt                                                                                                                                                                                   34            0           27            7
 ./CODE_OF_CONDUCT.txt                                                                                                                                                                            97            0           92            5
 ./robots.txt                                                                                                                                                                                    681            0          520          161
 ./content_long_list.txt                                                                                                                                                                           0            0            0            0
 ./content_summary.txt                                                                                                                                                                            11            0           11            0
 ./dataset/placeholder.txt                                                                                                                                                                         0            0            0            0
 ./example/placeholder.txt                                                                                                                                                                         0            0            0            0
 ./semgrep_rules/placeholder.txt                                                                                                                                                                   0            0            0            0
 ./humans.txt                                                                                                                                                                                     39            0           12           27
 ./test/placeholder.txt                                                                                                                                                                            0            0            0            0
 ./res/placeholder.txt                                                                                                                                                                             0            0            0            0
 ./CODE_OF_CONDUCT_DE.txt                                                                                                                                                                        109            0          104            5
 ./documentation/robots.txt                                                                                                                                                                      680            0          520          160
 ./structure.txt                                                                                                                                                                                 117            0          116            1
============================================================================================================================================================================================================================================
 Total                                                                                                                                                                               57        47423        34341        10753         2329
============================================================================================================================================================================================================================================
